…
    ## Rows: 822 Columns: 9
    ## ── Column specification ────────────────────────────────────────────────────────
    ## Delimiter: ","
    ## dbl  (8): prez_gop, gov_gop, sen_gop, rep_gop, prez_dem, gov_dem, sen_dem, r...
    ## date (1): mon
    ## 
    ## ℹ Use `spec()` to retrieve the full column specification for this data.
    ## ℹ Specify the column types or set `show_col_types = FALSE` to quiet this message.

``` r
pols_df
```

    ## # A tibble: 822 × 9
    ##    year  month president gov_gop sen_gop rep_gop gov_dem sen_dem rep_dem
    ##    <chr> <chr> <chr>       <dbl>   <dbl>   <dbl>   <dbl>   <dbl>   <dbl>
    ##  1 1947  Jan   dem            23      51     253      23      45     198
    ##  2 1947  Feb   dem            23      51     253      23      45     198
    ##  3 1947  Mar   dem            23      51     253      23      45     198
    ##  4 1947  Apr   dem            23      51     253      23      45     198
    ##  5 1947  May   dem            23      51     253      23      45     198
    ##  6 1947  Jun   dem            23      51     253      23      45     198
    ##  7 1947  Jul   dem            23      51     253      23      45     198
    ##  8 1947  Aug   dem            23      51     253      23      45     198
    ##  9 1947  Sep   dem            23      51     253      23      45     198
    ## 10 1947  Oct   dem            23      51     253      23      45     198
    ## # ℹ 812 more rows
…
    ## Rows: 787 Columns: 2
    ## ── Column specification ────────────────────────────────────────────────────────
    ## Delimiter: ","
    ## chr (1): date
    ## dbl (1): close
    ## 
    ## ℹ Use `spec()` to retrieve the full column specification for this data.
    ## ℹ Specify the column types or set `show_col_types = FALSE` to quiet this message.

``` r
snp_df
```

    ## # A tibble: 787 × 3
    ##     year month close
    ##    <dbl> <chr> <dbl>
    ##  1  2000 Apr   1452.
    ##  2  2000 Aug   1518.
    ##  3  2000 Dec   1320.
    ##  4  2000 Feb   1366.
    ##  5  2000 Jan   1394.
    ##  6  2000 Jul   1431.
    ##  7  2000 Jun   1455.
    ##  8  2000 Mar   1499.
    ##  9  2000 May   1421.
    ## 10  2000 Nov   1315.
    ## # ℹ 777 more rows
